{
  "type": "object",
  "properties": {
    "grade": {
      "type": "number"
    },
    "ects": {
      "type": "integer"
    },
    "coefficient": {
      "type": "integer"
    },
    "hours": {
      "type": "string"
    },
    "units": {
      "type": "integer"
    }
  },
  "required": [
    "grade",
    "ects",
    "coefficient",
    "hours",
    "units"
  ]
  }